208.65.90.21:4145
208.102.51.6:58208
162.243.22.61:64929
68.178.173.3:45898
68.71.252.38:4145
146.56.191.98:14785
68.71.240.210:4145
5.252.224.41:58071
159.203.91.171:32886
98.175.31.195:4145
163.172.164.115:16379
83.221.194.199:1080
93.184.8.22:1080
172.232.132.27:62511
37.187.150.91:52725
31.172.186.69:21513
115.127.124.234:1080
159.138.49.63:22045
157.230.191.76:11501
212.47.235.205:16379
54.37.11.28:51583
94.41.84.187:1080
62.182.205.85:1080
103.73.163.77:6080
80.191.2.7:1080
72.205.0.93:4145
70.166.167.55:57745
98.191.0.47:4145
116.97.240.147:4996
129.226.194.214:1081
